…
    ## The following objects are masked from 'package:stats':
    ## 
    ##     filter, lag

    ## The following objects are masked from 'package:base':
    ## 
    ##     intersect, setdiff, setequal, union

    total_steps <- data_activity %>% group_by(date) %>%summarise(tot_steps=sum(steps,na.rm=TRUE),na=mean(is.na(steps))) %>% print

    ## `summarise()` ungrouping output (override with `.groups` argument)

    ## # A tibble: 61 x 3
    ##    date       tot_steps    na
    ##    <date>         <int> <dbl>
    ##  1 2012-10-01         0     1
    ##  2 2012-10-02       126     0
    ##  3 2012-10-03     11352     0
    ##  4 2012-10-04     12116     0
    ##  5 2012-10-05     13294     0
    ##  6 2012-10-06     15420     0
    ##  7 2012-10-07     11015     0
    ##  8 2012-10-08         0     1
    ##  9 2012-10-09     12811     0
    ## 10 2012-10-10      9900     0
    ## # ... with 51 more rows
…
    dev.off()

    ## png 
    ##   2

What is the average daily activity pattern?
-------------------------------------------

    activity_pattern <- data_activity %>% group_by(interval) %>%summarise(mean_steps=mean(steps,na.rm=TRUE)) %>% print

    ## `summarise()` ungrouping output (override with `.groups` argument)

    ## # A tibble: 288 x 2
    ##    interval mean_steps
    ##       <int>      <dbl>
    ##  1        0     1.72  
    ##  2        5     0.340 
    ##  3       10     0.132 
    ##  4       15     0.151 
    ##  5       20     0.0755
    ##  6       25     2.09  
    ##  7       30     0.528 
    ##  8       35     0.868 
    ##  9       40     0     
    ## 10       45     1.47  
    ## # ... with 278 more rows
…
    ## [1] "Total number of NA = 2304"

    imputed_data <- data_activity
    for (i in 1:length(imputed_data$steps)) {
      if (is.na(imputed_data$steps[i])) {
        imputed_data$steps[i] <- activity_pattern$mean_steps[activity_pattern$interval == imputed_data$interval[i]]
      }
    }

    imput_steps <- imputed_data %>% group_by(date) %>% summarise(steps=sum(steps,na.rm=TRUE)) %>% print

    ## `summarise()` ungrouping output (override with `.groups` argument)

    ## # A tibble: 61 x 2
    ##    date        steps
    ##    <date>      <dbl>
    ##  1 2012-10-01 10766.
    ##  2 2012-10-02   126 
    ##  3 2012-10-03 11352 
    ##  4 2012-10-04 12116 
    ##  5 2012-10-05 13294 
    ##  6 2012-10-06 15420 
    ##  7 2012-10-07 11015 
    ##  8 2012-10-08 10766.
    ##  9 2012-10-09 12811 
    ## 10 2012-10-10  9900 
    ## # ... with 51 more rows
…
